1004
1166
1173
1240
1370
1554
1667
1682
2107
2275
2413
2471
2603
2642
2645
2791
2870
2995
3451
3455
3991
4066
4586
4691
4787
5338
5505
5884
6075
6109
6748
7215
7464
8272
8616
8626
8750
9518
9533
9927
